Grading Rubric for HW04

Two Files were created CrapsIf.java, CrapsSwitch.java 10 pts
Random Code                                           10 pts
Did not work					     -10 pts
User provided input                                   10 pts
Determine Slang                                       20 pts
CrapsSwitch did not determine it		     -10 pts
Print the Slang                                       10 pts
CrapsSwitch din't work                               -5  pts
Comments                                              10 pts
CrapsSwitch has no comments			     -5  pts		
Compiles                                              30 pts
CrapsSwitch didn't compile			     -15 Pts 
Total: 						      65 pts
